homework08.md05
…
I see a residual plot that shows the distance from each point to the linear model that was shown on the previous graph. As expected because our linear model is a good fit, most residuals center around 0 because there is little difference on average between each point and the line. However, there are a few big outliers with a residual over 1.5 or below -1. However these big residuals do not happen often in a particular range of log_followers so the linear model is a solid fit for this data and predicts the average viewers (log_viewers) well for the entire range of our x-variable (log_followers).

Question 4

lingua <- twitch_data |> 
  select(channel, language, average_viewers)

lingua

# A tibble: 1,000 × 3
   channel    language   average_viewers
   <chr>      <chr>                <dbl>
 1 xQcOW      English              27716
 2 summit1g   English              25610
 3 Gaules     Portuguese           10976
 4 ESL_CSGO   English               7714
 5 Tfue       English              29602
 6 Asmongold  English              42414
 7 NICKMERCS  English              24181
 8 Fextralife English              18985
 9 loltyler1  English              22381
10 Anomaly    English              12377
# ℹ 990 more rows
…
I plotted the 2 variables on the graph above. Here I can compare the distributions of average viewers for each language. As expected, English has the most channels and therefore has the widest range of average viewers among those channels. The channels for most languages have an average viewership from 235 (the lowest) to 12500. Something that stands out to me is that Russian has one very high outlier with over 125000 average viewerss, more viewers than every English channel except for one that has nearly 150000 average viewers. However, after digging deeper, I realized that these are actually the same channel but in different languages: dota2ti in English and dota2ti_ru in Russian.

Question 5

fit2 <- lm(average_viewers ~ language,
           data = lingua)

broom::tidy(fit2)

# A tibble: 21 × 5
   term              estimate std.error statistic p.value
   <chr>                <dbl>     <dbl>     <dbl>   <dbl>
 1 (Intercept)          5682.     3788.     1.50    0.134
 2 languageChinese     -2257.     4092.    -0.552   0.581
 3 languageCzech       -3855.     5129.    -0.751   0.453
 4 languageEnglish      -569.     3808.    -0.150   0.881
 5 languageFinnish     -4655.     9279.    -0.502   0.616
 6 languageFrench      -2176.     3929.    -0.554   0.580
 7 languageGerman      -1404.     3977.    -0.353   0.724
 8 languageGreek       -3721.     9279.    -0.401   0.688
 9 languageHungarian   -3542.     7087.    -0.500   0.617
10 languageItalian     -3477.     4310.    -0.807   0.420
# ℹ 11 more rows
…
